[
    {
        "ServiceId" :1,
        "Name" : "filter change",
        "Price" : 10.90
    },
    {
        "ServiceId" :2,
        "Name" : "oil change",
        "Price" : 9.90
    },
    {
        "ServiceId" :3,
        "Name" : "diagnostics",
        "Price" : 20.00
    },
    {
        "ServiceId" :4,
        "Name" : "filter cleaning",
        "Price" : 10.90
    },
    {
        "ServiceId" :5,
        "Name" : "break change",
        "Price" : 50.00
    }
]
